…
Summary Statistics by
Perturbation Level

summary_global <- results_global %>%
  dplyr::group_by(Perturbation) %>%
  dplyr::summarise(
    p_value = wilcox.test(Corrected, Raw, paired = TRUE, alternative = "greater")$p.value,
    mean_gain = mean(Corrected - Raw),
    prop_improved = mean(Corrected > Raw)
  )

summary_global

## # A tibble: 21 × 4
##    Perturbation  p_value mean_gain prop_improved
##           <dbl>    <dbl>     <dbl>         <dbl>
##  1         0    3.07e- 4   0.0140          0.574
##  2         0.05 1.17e- 1   0.00632         0.513
##  3         0.1  1.87e-18   0.0615          0.690
##  4         0.15 2.22e-28   0.0917          0.761
##  5         0.2  8.51e-31   0.108           0.761
##  6         0.25 1.25e-32   0.113           0.794
##  7         0.3  2.13e-30   0.0972          0.761
##  8         0.35 2.07e-29   0.0999          0.748
##  9         0.4  1.94e-24   0.0776          0.748
## 10         0.45 1.22e-22   0.0698          0.723
## # ℹ 11 more rows
…
